CMake Error: The source directory "/home/grisha/catkin_ws/src/pubsub/src" does not appear to contain CMakeLists.txt.
Specify --help for usage, or press the help button on the CMake GUI.
make: *** [cmake_check_build_system] Error 1
